[
  {
    "Term": "Acidulate",
    "Explanation": " Acidulate – To make a dish slightly sour or acidic in order to bring out other flavours, or to make the dish more tender. Usually done by adding a small amount of lemon juice or vinegar"
  },
  {
    "Term": "Al Dente",
    "Explanation": "Pasta that has been cooked tender but slightly firm, but not hard. Italian for ‘to the tooth’."
  },
  {
    "Term": "Bake Blind",
    "Explanation": " To bake an empty pie, tart or flan shell so the pastry is partially cooked before the filling is added, or to cook completely if the filling isn’t to be cooked with the shell"
  },
  {
    "Term": "Baste",
    "Explanation": "To moisten foods with fat or other seasoned liquids during cooking.  Basting prevents drying out and adds flavour."
  },
  {
    "Term": "Beat",
    "Explanation": "To mix foods thoroughly to a smooth consistency using a spoon, fork, whisk or electric beater/mixer."
  },
  {
    "Term": "Cream",
    "Explanation": "To beat butter or butter and sugar together until light and creamy."
  },
  {
    "Term": "Caramelise",
    "Explanation": " The process of browning sugar. Granulated sugar can be caramelised in a pan until it turns brown and takes on a nutty flavour. Fruit and vegetables can also be caramelised by cooking them slowly in a small amount of fat until they are brown and shiny."
  },
  {
    "Term": "Dice",
    "Explanation": "To chop food into very small even cubes."
  },
  {
    "Term": "Drain",
    "Explanation": "To remove liquid from food (usually with a colander or sieve). The food is kept and the liquid discarded unless specified."
  },
  {
    "Term": "En Croute",
    "Explanation": "Cooked entirely encased in pastry. Usually refers to meat."
  },
  {
    "Term": "Glaze",
    "Explanation": "A substance (often warmed jam or beaten egg) brushed over food to give it shine and colour."
  },
  {
    "Term": "Grease",
    "Explanation": "To lightly coat a tin or dish with oil or melted butter to prevent food sticking."
  },
  {
    "Term": "Infuse",
    "Explanation": "To flavour a liquid by heating it with aromatic ingredients (often spices) and leaving to let the flavour develop."
  },
  {
    "Term": "Julienne",
    "Explanation": "To cut into uniform thin matchsticks for quick cooking. Often used for stir-fries or in French cuisine."
  },
  {
    "Term": "Knead",
    "Explanation": "To stretch and fold dough to make it firm and smooth. This stretches the gluten in the flour and gives elasticity. Used for bread making but not for pastry making (over-handling will make pastry tough)."
  },
  {
    "Term": "Marinate",
    "Explanation": "To tenderize and flavour food (usually meat) by leaving it in an acidulated seasoned liquid (a marinade)."
  },
  {
    "Term": "Parboil",
    "Explanation": "To partially cook in boiling water before some other form of cooking. Most commonly used for roast potatoes which are parboiled before being added to the roasting meat."
  },
  {
    "Term": "Pinch",
    "Explanation": "A small amount of something - as much as can be held between your thumb and forefinger."
  },
  {
    "Term": "Poach",
    "Explanation": "To cook food immersed in a gently simmering liquid."
  },
  {
    "Term": "Punch Down the Dough",
    "Explanation": "A term used in break making. A yeast dough which is left to rise is then punched with one firm blow of the fist, to remove air from it."
  },
  {
    "Term": "Puree",
    "Explanation": "Food blended or processed to a pulp."
  },
  {
    "Term": "Reduce",
    "Explanation": "To boil or simmer liquid in an uncovered pan so that the liquid evaporates and the mixture becomes thicker and more concentrated in flavour. Most soups and stews are reduced - this should usually be done at a simmer so the flavour of the dish is not impaired by long hard boiling."
  },
  {
    "Term": "Roux",
    "Explanation": "The basic mixture of many sauces - fat (usually melted butter) and flour. Used to thicken. Liquid is added to make a sauce."
  },
  {
    "Term": "Rub In",
    "Explanation": "To mix together flour and butter with your fingertips, usually for pastry. It will resemble find breadcrumbs."
  },
  {
    "Term": "Score",
    "Explanation": "To ensure even cooking. Make incisions with a knife (usually into fish or meat) that do not cut all the way through."
  },
  {
    "Term": "Sift",
    "Explanation": "To shake dry ingredients (usually flour) through a sieve to aerate and remove lumps."
  },
  {
    "Term": "Simmer",
    "Explanation": "To cook liquid, or food in liquid, over low heat, below boiling poin. The surface of the liquid will be moving with a few small bubble."
  },
  {
    "Term": "Skim",
    "Explanation": "To remove fat or scum that comes to the surface or a liquid."
  },
  {
    "Term": "Soft Peaks",
    "Explanation": "A term used when egg whites are whipped. The peak will fold over on itself when the beater is lifted."
  },
  {
    "Term": "Stiff Peaks",
    "Explanation": "A term used when egg whites are whipped. The peak will hold its shape when the beater is lifted."
  },
  {
    "Term": "Stir-Fry",
    "Explanation": "To quickly fry (usually in a wok) over high heat while stirring."
  },
  {
    "Term": "Strain",
    "Explanation": "To remove solids from a liquid by pouring through a sieve. The solids are discarded, unless specified."
  },
  {
    "Term": "Tbsp",
    "Explanation": "This is a short abbreviation used in recipes to indicate table-spoon measurements."
  },
  {
    "Term": "Tsp",
    "Explanation": "This is a short abbreviation used in recipes to indicate tea-spoon measurements"
  }
]