{
  "project_info": {
    "project_number": "380545466916",
    "firebase_url": "https://learntocookapplication.firebaseio.com",
    "project_id": "learntocookapplication",
    "storage_bucket": "learntocookapplication.appspot.com"
  },
  "client": [
    {
      "client_info": {
        "mobilesdk_app_id": "1:380545466916:android:99cdb564e68aa864",
        "android_client_info": {
          "package_name": "uk.co.fallows.callum.learntocookapplication"
        }
      },
      "oauth_client": [
        {
          "client_id": "380545466916-hn8ls85rms5us5alqapprrt3dpf2qneu.apps.googleusercontent.com",
          "client_type": 3
        }
      ],
      "api_key": [
        {
          "current_key": "AIzaSyBu64S79vGZwxJvoACViZv4xRuESvBCD8I"
        }
      ],
      "services": {
        "analytics_service": {
          "status": 1
        },
        "appinvite_service": {
          "status": 1,
          "other_platform_oauth_client": []
        },
        "ads_service": {
          "status": 2
        }
      }
    }
  ],
  "configuration_version": "1"
}